Primary Outcomes | Stay Strong - Primary Analyses
…
Is linear the best way to go? We’ll see …

SS.ts %>%
  group_by(VibrentID) %>% 
  count() %>% 
  filter(n < 5)

# A tibble: 39 x 2
# Groups:   VibrentID [39]
   VibrentID     n
   <chr>     <int>
 1 263-858       4
 2 265-377       2
 3 268-326       3
 4 275-874       2
 5 286-884       4
 6 297-627       3
 7 325-776       3
 8 399-236       1
 9 446-497       2
10 457-253       4
# ... with 29 more rows
…
